1670761424
s:848:"HTTP/1.1 200 OK
Server: nginx
Date: Sun, 11 Dec 2022 10:23:45 GMT
Content-Type: application/json; charset=utf-8
Transfer-Encoding: chunked
Vary: Accept-Encoding
X-XSS-Protection: 1; mode=block;
X-Content-Type-Options: nosniff
Referrer-Policy: strict-origin-when-cross-origin
X-Frame-Options: SAMEORIGIN
Strict-Transport-Security: max-age=31536000; includeSubDomains; preload
Feature-Policy: accelerometer 'self'; ambient-light-sensor 'self'; autoplay 'self'; camera 'self'; encrypted-media 'self'; fullscreen 'self'; geolocation 'self'; gyroscope 'self'; magnetometer 'self'; microphone 'self'; midi 'self'; payment 'self'; picture-in-picture *; speaker 'self'; sync-xhr *; usb 'self'; vr 'self';
X-Permitted-Cross-Domain-Policies: none
Expect-CT: enforce, max-age=604800
X-Backend-Server: vm2731.jn-hebergement.com

{"services":[]}";